{
    "0": {
        "type": "Liked",
        "username": "TheLegend",
        "flexid": "221",
        "flex": "Washington +7",
        "description": ""
    },
    "1": {
        "type": "Followed",
        "username": "SneakyPete",
        "flexid": "222",
        "flex": "Washington +7",
        "description": ""
    },
    "2": {
        "type": "Ride",
        "username": "GamblingGambino",
        "flexid": "222",
        "flex": "Washington +7",
        "description": "Lets go"
    },
    "3": {
        "type": "Commented",
        "username": "Trollman",
        "flexid": "222",
        "flex": "Washington +7",
        "description": "No wayyy!"
    }
    
}